\relax 
\@writefile{toc}{\contentsline {section}{\numberline {1}Introduction}{1}}
\@writefile{toc}{\contentsline {section}{\numberline {2}Starting points}{2}}
\@writefile{toc}{\contentsline {subsection}{\numberline {2.1}Layout}{2}}
\@writefile{toc}{\contentsline {subsection}{\numberline {2.2}Color}{2}}
\@writefile{toc}{\contentsline {subsection}{\numberline {2.3}Metric values}{2}}
\@writefile{toc}{\contentsline {section}{\numberline {3}Software Evolutions}{3}}
\@writefile{toc}{\contentsline {subsection}{\numberline {3.1}Class Evolutions}{3}}
\@writefile{toc}{\contentsline {subsection}{\numberline {3.2}Alpha color}{3}}
\@writefile{toc}{\contentsline {section}{\numberline {4}Result, metric values evolution, visualization}{3}}
\@writefile{toc}{\contentsline {subsection}{\numberline {4.1}Number of Methods}{3}}
\@writefile{toc}{\contentsline {subsection}{\numberline {4.2}Test Coverages}{4}}
\@writefile{toc}{\contentsline {subsection}{\numberline {4.3}Pattern Identification}{4}}
